{
    "soil_temperature": {
        "enabled": 1,
        "update_period_seconds": 1,
        "enable_storing_data": 1,
        "output_file_name": "soil_temperature_listener.json",
        "default_group": "soil_sensors"
    },
    "soil_humidity": {
        "enabled": 1,
        "update_period_seconds": 1,
        "enable_storing_data": 1,
        "output_file_name": "soil_humidity_listener.json",
        "default_group": "soil_sensors"
    },
    "ambient_temperature":{
        "enabled": 1,
        "update_period_seconds": 1,
        "enable_storing_data": 1,
        "output_file_name": "ambient_temperature_listener.json",
        "default_group": "ambient_sensors"
    },
    "ambient_humidity": {
        "enabled": 1,
        "update_period_seconds": 1,
        "enable_storing_data": 1,
        "output_file_name": "ambient_humidity_listener.json",
        "default_group": "ambient_sensors"
    },
    "water_pump_1": {
        "enabled": 1,
        "update_period_seconds": 1,
        "enable_storing_data": 1,
        "output_file_name": "water_pump_1_listener.json"
    },
    "display_message_1": {
        "enabled": 1,
        "update_period_seconds": 1,
        "enable_storing_data": 1,
        "output_file_name": "display_message_1_listener.json"
    },
    "led_1": {
        "enabled": 1,
        "update_period_seconds": 1,
        "enable_storing_data": 1,
        "output_file_name": "led_1_listener.json"
    }
}