{
    "soil_temperature": {
        "enabled": 1,
        "type": {
            "input_type":"AUTO",
            "update_period_seconds": 1
        },
        "enable_storing_data": 1,
        "output_file_name": "soil_temperature_talker.json"
    },
    "soil_humidity": {
        "enabled": 1,
        "type": {
            "input_type":"AUTO",
            "update_period_seconds": 2
        },
        "enable_storing_data": 1,
        "output_file_name": "soil_humidity_talker.json"
    },
    "ambient_temperature": {
        "enabled": 1,
        "type": {
            "input_type":"AUTO",
            "update_period_seconds": 4
        },
        "enable_storing_data": 1,
        "output_file_name": "ambient_temperature_talker.json"
    },
    "ambient_humidity": {
        "enabled": 1,
        "type": {
            "input_type":"AUTO",
            "update_period_seconds": 8
        },
        "enable_storing_data": 1,
        "output_file_name": "ambient_humidity_talker.json"
    },
    "water_pump_1": {
        "enabled": 1,
        "type": {
            "input_type":"BUTTON",
            "update_period_seconds": 0.1
        },
        "enable_storing_data": 1,
        "output_file_name": "water_pump_1_talker.json"
    },
    "display_message_1": {
        "enabled": 1,
        "type": {
            "input_type":"SUBMITTABLE_TEXT_BOX",
            "update_period_seconds": 0.1
        },
        "enable_storing_data": 1,
        "output_file_name": "display_message__1_talker.json"
    },
    "led_1": {
        "enabled": 1,
        "type": {
            "input_type":"BUTTON",
            "update_period_seconds": 0.1
        },
        "enable_storing_data": 1,
        "output_file_name": "led_1_talker.json"
    },
    "toggle_led": {
        "enabled": 1,
        "type": {
            "input_type":"BUTTON",
            "update_period_seconds": 0.1
        },
        "enable_storing_data": 1,
        "output_file_name": "toggle_led_talker.json"
    },
    "forward_button": {
        "enabled": 1,
        "type": {
            "input_type":"IMAGE_BUTTON",
            "update_period_seconds": 0.1,
            "image_url":"forward_button.png"
        },
        "enable_storing_data": 1,
        "output_file_name": "forward_button_talker.json"
    }
}